2.2691e-07   0.0218416     4.97558     2.97932     10.1782  1.06626e-06  1.97361e-07  4.71945e-07  3.74167e-07  7.48376e-08  1.93116e-07  3.081e+08   6.700e+07   
4.03709e-07   0.0777196     7.10399     2.25517     7.58224  7.42576e-07  6.13268e-07  6.04445e-07  5.28361e-07  1.60298e-07  3.91192e-07  5.448e+08   1.033e+08   
1.02678e-07   0.0296503     8.72107     1.67481     5.89392  5.26172e-07  6.18465e-07  4.90845e-07  1.55779e-07  1.58404e-07  1.99207e-07  7.029e+08   1.279e+08   
1.04914e-07   0.0403948     8.52316     3.10304     7.62141  8.08733e-07  9.35199e-07  6.09884e-07  1.27938e-07  1.04306e-07  1.63785e-07  8.910e+08   1.306e+08   
1.10134e-07    0.053006     9.83171     3.66254     8.40406  9.77676e-07  8.53164e-07  6.2999e-07  1.24342e-07  1.11629e-07  1.5273e-07  9.557e+08   1.366e+08   
2.78557e-07    0.214505     17.8195     3.90582     14.9671  2.00117e-06  2.79501e-06  1.4746e-06  2.69485e-07  2.95017e-07  3.10997e-07  1.396e+09   2.297e+08   
1.29542e-07    0.199508     17.5385      4.5175     11.3602  2.11675e-06  2.22223e-06  1.37669e-06  2.32608e-07  1.97647e-07  2.96174e-07  2.077e+09   5.817e+08   
6.18371e-09  -0.0190472     5.08891     3.26728     4.42428  3.91413e-07  4.15888e-07  3.42948e-07  8.37246e-08  5.06619e-08  7.73017e-08  1.044e+09   1.470e+08   
