GFORTRAN module version '9' created from rk4strat_v2.f90
MD5:8908b53981db62f05cb6bd41ab5e230b -- If you edit this, you'll get what you deserve.

(() () () () () () () () () () () () () () () () () () () () () () () ()
() () ())

()

()

()

()

()

(2 '__convert_i4_i8' '(intrinsic)' '' 1 ((PROCEDURE UNKNOWN-INTENT
UNKNOWN-PROC UNKNOWN UNKNOWN 0 0 FUNCTION ELEMENTAL PURE) (INTEGER 8 0 0
0 INTEGER ()) 0 0 () () 2 () () () 0 0)
3 '__convert_r4_r8' '(intrinsic)' '' 1 ((PROCEDURE UNKNOWN-INTENT
UNKNOWN-PROC UNKNOWN UNKNOWN 0 0 FUNCTION ELEMENTAL PURE) (REAL 8 0 0 0
REAL ()) 0 0 () () 3 () () () 0 0)
4 'comdat' 'comdat' '' 1 ((MODULE UNKNOWN-INTENT UNKNOWN-PROC UNKNOWN
UNKNOWN 0 0) (UNKNOWN 0 0 0 0 UNKNOWN ()) 0 0 () () 0 () () () 0 0)
5 'cp' 'comdat' '' 1 ((VARIABLE UNKNOWN-INTENT UNKNOWN-PROC UNKNOWN
IMPLICIT-SAVE 0 0 DATA) (REAL 8 0 0 0 REAL ()) 0 0 () () 0 () () () 0 0)
6 'cts' 'comdat' '' 1 ((PROCEDURE UNKNOWN-INTENT MODULE-PROC DECL
UNKNOWN 0 0 SUBROUTINE) (UNKNOWN 0 0 0 0 UNKNOWN ()) 0 0 () () 0 () () ()
0 0)
7 'd' 'comdat' '' 1 ((VARIABLE UNKNOWN-INTENT UNKNOWN-PROC UNKNOWN
IMPLICIT-SAVE 0 0 DATA) (REAL 8 0 0 0 REAL ()) 0 0 () () 0 () () () 0 0)
8 'dl' 'comdat' '' 1 ((VARIABLE UNKNOWN-INTENT UNKNOWN-PROC UNKNOWN
IMPLICIT-SAVE 0 0 DATA) (INTEGER 8 0 0 0 INTEGER ()) 0 0 () () 0 () () ()
0 0)
9 'dref' 'comdat' '' 1 ((VARIABLE UNKNOWN-INTENT UNKNOWN-PROC UNKNOWN
IMPLICIT-SAVE 0 0 DATA) (REAL 8 0 0 0 REAL ()) 0 0 () () 0 () () () 0 0)
10 'dst' 'comdat' '' 1 ((VARIABLE UNKNOWN-INTENT UNKNOWN-PROC UNKNOWN
IMPLICIT-SAVE 0 0 DATA) (REAL 8 0 0 0 REAL ()) 0 0 () () 0 () () () 0 0)
11 'dun' 'comdat' '' 1 ((VARIABLE UNKNOWN-INTENT UNKNOWN-PROC UNKNOWN
IMPLICIT-SAVE 0 0 DATA) (REAL 8 0 0 0 REAL ()) 0 0 () () 0 () () () 0 0)
12 'dz' 'comdat' '' 1 ((VARIABLE UNKNOWN-INTENT UNKNOWN-PROC UNKNOWN
IMPLICIT-SAVE 0 0) (REAL 8 0 0 0 REAL ()) 0 0 () () 0 () () () 0 0)
13 'g' 'comdat' '' 1 ((VARIABLE UNKNOWN-INTENT UNKNOWN-PROC UNKNOWN
IMPLICIT-SAVE 0 0 DATA) (REAL 8 0 0 0 REAL ()) 0 0 () () 0 () () () 0 0)
14 'l' 'comdat' '' 1 ((VARIABLE UNKNOWN-INTENT UNKNOWN-PROC UNKNOWN
IMPLICIT-SAVE 0 0) (INTEGER 8 0 0 0 INTEGER ()) 0 0 () () 0 () () () 0 0)
15 'lref' 'comdat' '' 1 ((VARIABLE UNKNOWN-INTENT UNKNOWN-PROC UNKNOWN
IMPLICIT-SAVE 0 0 DATA) (INTEGER 8 0 0 0 INTEGER ()) 0 0 () () 0 () () ()
0 0)
16 'lz' 'comdat' '' 1 ((VARIABLE UNKNOWN-INTENT UNKNOWN-PROC UNKNOWN
IMPLICIT-SAVE 0 0 DATA) (REAL 8 0 0 0 REAL ()) 0 0 () () 0 () () () 0 0)
17 'lzref' 'comdat' '' 1 ((VARIABLE UNKNOWN-INTENT UNKNOWN-PROC UNKNOWN
IMPLICIT-SAVE 0 0 DATA) (REAL 8 0 0 0 REAL ()) 0 0 () () 0 () () () 0 0)
18 'm1' 'comdat' '' 1 ((VARIABLE UNKNOWN-INTENT UNKNOWN-PROC UNKNOWN
IMPLICIT-SAVE 0 0 DATA) (REAL 8 0 0 0 REAL ()) 0 0 () () 0 () () () 0 0)
19 'm2' 'comdat' '' 1 ((VARIABLE UNKNOWN-INTENT UNKNOWN-PROC UNKNOWN
IMPLICIT-SAVE 0 0 DATA) (REAL 8 0 0 0 REAL ()) 0 0 () () 0 () () () 0 0)
20 'm3' 'comdat' '' 1 ((VARIABLE UNKNOWN-INTENT UNKNOWN-PROC UNKNOWN
IMPLICIT-SAVE 0 0 DATA) (REAL 8 0 0 0 REAL ()) 0 0 () () 0 () () () 0 0)
21 'm4' 'comdat' '' 1 ((VARIABLE UNKNOWN-INTENT UNKNOWN-PROC UNKNOWN
IMPLICIT-SAVE 0 0 DATA) (REAL 8 0 0 0 REAL ()) 0 0 () () 0 () () () 0 0)
22 'pref' 'comdat' '' 1 ((VARIABLE UNKNOWN-INTENT UNKNOWN-PROC UNKNOWN
IMPLICIT-SAVE 0 0) (REAL 8 0 0 0 REAL ()) 0 0 () () 0 () () () 0 0)
23 'rg' 'comdat' '' 1 ((VARIABLE UNKNOWN-INTENT UNKNOWN-PROC UNKNOWN
IMPLICIT-SAVE 0 0 DATA) (REAL 8 0 0 0 REAL ()) 0 0 () () 0 () () () 0 0)
24 'tref' 'comdat' '' 1 ((VARIABLE UNKNOWN-INTENT UNKNOWN-PROC UNKNOWN
IMPLICIT-SAVE 0 0 DATA) (REAL 8 0 0 0 REAL ()) 0 0 () () 0 () () () 0 0)
)

('__convert_i4_i8' 0 2 '__convert_r4_r8' 0 3 'comdat' 0 4 'cp' 0 5 'cts'
0 6 'd' 0 7 'dl' 0 8 'dref' 0 9 'dst' 0 10 'dun' 0 11 'dz' 0 12 'g' 0 13
'l' 0 14 'lref' 0 15 'lz' 0 16 'lzref' 0 17 'm1' 0 18 'm2' 0 19 'm3' 0
20 'm4' 0 21 'pref' 0 22 'rg' 0 23 'tref' 0 24)
