GFORTRAN module version '9' created from rk4strat.f90
MD5:af97e1aa0de94450de7aa43fa03c95c4 -- If you edit this, you'll get what you deserve.

(() () () () () () () () () () () () () () () () () () () () () () () ()
() () ())

()

()

()

()

()

(2 '__convert_r4_r8' '(intrinsic)' '' 1 ((PROCEDURE UNKNOWN-INTENT
UNKNOWN-PROC UNKNOWN UNKNOWN 0 0 FUNCTION ELEMENTAL PURE) (REAL 8 0 0 0
REAL ()) 0 0 () () 2 () () () 0 0)
3 'commondat' 'commondat' '' 1 ((MODULE UNKNOWN-INTENT UNKNOWN-PROC
UNKNOWN UNKNOWN 0 0) (UNKNOWN 0 0 0 0 UNKNOWN ()) 0 0 () () 0 () () () 0
0)
4 'cp' 'commondat' '' 1 ((VARIABLE UNKNOWN-INTENT UNKNOWN-PROC UNKNOWN
IMPLICIT-SAVE 0 0 DATA) (REAL 8 0 0 0 REAL ()) 0 0 () () 0 () () () 0 0)
5 'd' 'commondat' '' 1 ((VARIABLE UNKNOWN-INTENT UNKNOWN-PROC UNKNOWN
IMPLICIT-SAVE 0 0 DATA) (REAL 8 0 0 0 REAL ()) 0 0 () () 0 () () () 0 0)
6 'g' 'commondat' '' 1 ((VARIABLE UNKNOWN-INTENT UNKNOWN-PROC UNKNOWN
IMPLICIT-SAVE 0 0 DATA) (REAL 8 0 0 0 REAL ()) 0 0 () () 0 () () () 0 0)
7 'imr' 'commondat' '' 1 ((VARIABLE UNKNOWN-INTENT UNKNOWN-PROC UNKNOWN
IMPLICIT-SAVE 0 0 DATA) (INTEGER 4 0 0 0 INTEGER ()) 0 0 () () 0 () () ()
0 0)
8 'l' 'commondat' '' 1 ((VARIABLE UNKNOWN-INTENT UNKNOWN-PROC UNKNOWN
IMPLICIT-SAVE 0 0 DATA) (INTEGER 4 0 0 0 INTEGER ()) 0 0 () () 0 () () ()
0 0)
9 'm0' 'commondat' '' 1 ((VARIABLE UNKNOWN-INTENT UNKNOWN-PROC UNKNOWN
IMPLICIT-SAVE 0 0 DATA) (REAL 8 0 0 0 REAL ()) 0 0 () () 0 () () () 0 0)
10 'm1' 'commondat' '' 1 ((VARIABLE UNKNOWN-INTENT UNKNOWN-PROC UNKNOWN
IMPLICIT-SAVE 0 0 DATA) (REAL 8 0 0 0 REAL ()) 0 0 () () 0 () () () 0 0)
11 'm2' 'commondat' '' 1 ((VARIABLE UNKNOWN-INTENT UNKNOWN-PROC UNKNOWN
IMPLICIT-SAVE 0 0 DATA) (REAL 8 0 0 0 REAL ()) 0 0 () () 0 () () () 0 0)
12 'm3' 'commondat' '' 1 ((VARIABLE UNKNOWN-INTENT UNKNOWN-PROC UNKNOWN
IMPLICIT-SAVE 0 0 DATA) (REAL 8 0 0 0 REAL ()) 0 0 () () 0 () () () 0 0)
13 'm4' 'commondat' '' 1 ((VARIABLE UNKNOWN-INTENT UNKNOWN-PROC UNKNOWN
IMPLICIT-SAVE 0 0 DATA) (REAL 8 0 0 0 REAL ()) 0 0 () () 0 () () () 0 0)
14 'p00' 'commondat' '' 1 ((VARIABLE UNKNOWN-INTENT UNKNOWN-PROC UNKNOWN
IMPLICIT-SAVE 0 0 DATA) (REAL 8 0 0 0 REAL ()) 0 0 () () 0 () () () 0 0)
15 'rg' 'commondat' '' 1 ((VARIABLE UNKNOWN-INTENT UNKNOWN-PROC UNKNOWN
IMPLICIT-SAVE 0 0 DATA) (REAL 8 0 0 0 REAL ()) 0 0 () () 0 () () () 0 0)
16 'rho00' 'commondat' '' 1 ((VARIABLE UNKNOWN-INTENT UNKNOWN-PROC
UNKNOWN IMPLICIT-SAVE 0 0 DATA) (REAL 8 0 0 0 REAL ()) 0 0 () () 0 () ()
() 0 0)
17 'tt00' 'commondat' '' 1 ((VARIABLE UNKNOWN-INTENT UNKNOWN-PROC
UNKNOWN IMPLICIT-SAVE 0 0 DATA) (REAL 8 0 0 0 REAL ()) 0 0 () () 0 () ()
() 0 0)
18 'x0' 'commondat' '' 1 ((VARIABLE UNKNOWN-INTENT UNKNOWN-PROC UNKNOWN
IMPLICIT-SAVE 0 0 DATA) (REAL 8 0 0 0 REAL ()) 0 0 () () 0 () () () 0 0)
19 'x1' 'commondat' '' 1 ((VARIABLE UNKNOWN-INTENT UNKNOWN-PROC UNKNOWN
IMPLICIT-SAVE 0 0 DATA) (REAL 8 0 0 0 REAL ()) 0 0 () () 0 () () () 0 0)
20 'x2' 'commondat' '' 1 ((VARIABLE UNKNOWN-INTENT UNKNOWN-PROC UNKNOWN
IMPLICIT-SAVE 0 0 DATA) (REAL 8 0 0 0 REAL ()) 0 0 () () 0 () () () 0 0)
21 'x3' 'commondat' '' 1 ((VARIABLE UNKNOWN-INTENT UNKNOWN-PROC UNKNOWN
IMPLICIT-SAVE 0 0 DATA) (REAL 8 0 0 0 REAL ()) 0 0 () () 0 () () () 0 0)
22 'xmax' 'commondat' '' 1 ((VARIABLE UNKNOWN-INTENT UNKNOWN-PROC
UNKNOWN IMPLICIT-SAVE 0 0 DATA) (REAL 8 0 0 0 REAL ()) 0 0 () () 0 () ()
() 0 0)
23 'xtac' 'commondat' '' 1 ((VARIABLE UNKNOWN-INTENT UNKNOWN-PROC
UNKNOWN IMPLICIT-SAVE 0 0) (REAL 8 0 0 0 REAL ()) 0 0 () () 0 () () () 0
0)
24 'xtop' 'commondat' '' 1 ((VARIABLE UNKNOWN-INTENT UNKNOWN-PROC
UNKNOWN IMPLICIT-SAVE 0 0) (REAL 8 0 0 0 REAL ()) 0 0 () () 0 () () () 0
0)
)

('__convert_r4_r8' 0 2 'commondat' 0 3 'cp' 0 4 'd' 0 5 'g' 0 6 'imr' 0
7 'l' 0 8 'm0' 0 9 'm1' 0 10 'm2' 0 11 'm3' 0 12 'm4' 0 13 'p00' 0 14 'rg'
0 15 'rho00' 0 16 'tt00' 0 17 'x0' 0 18 'x1' 0 19 'x2' 0 20 'x3' 0 21
'xmax' 0 22 'xtac' 0 23 'xtop' 0 24)
