    -3.00000         100.000         200.000         100.000    
    -2.97710         99.5248         197.162         100.286    
    -2.95420         99.0496         194.352         100.575    
    -2.93130         98.5744         191.568         100.865    
    -2.90840         98.0992         188.811         101.158    
    -2.88550         97.6233         186.082         101.453    
    -2.86260         97.1446         183.384         101.746    
    -2.83969         96.6551         180.733         102.031    
    -2.81679         96.1378         178.158         102.288    
    -2.79389         95.5678         175.701         102.492    
    -2.77099         94.9269         173.393         102.620    
    -2.74809         94.2214         171.215         102.680    
    -2.72519         93.4785         169.116         102.699    
    -2.70229         92.7219         167.050         102.703    
    -2.67939         91.9622         164.999         102.703    
    -2.65649         91.2019         162.957         102.704    
    -2.63359         90.4416         160.923         102.704    
    -2.61069         89.6813         158.898         102.704    
    -2.58779         88.9210         156.882         102.704    
    -2.56489         88.1607         154.874         102.704    
    -2.54198         87.4004         152.875         102.704    
    -2.51908         86.6401         150.885         102.704    
    -2.49618         85.8798         148.903         102.704    
    -2.47328         85.1195         146.930         102.704    
    -2.45038         84.3592         144.966         102.704    
    -2.42748         83.5989         143.010         102.704    
    -2.40458         82.8386         141.064         102.704    
    -2.38168         82.0783         139.126         102.704    
    -2.35878         81.3179         137.198         102.704    
    -2.33588         80.5576         135.278         102.704    
    -2.31298         79.7973         133.367         102.704    
    -2.29008         79.0370         131.466         102.704    
    -2.26718         78.2767         129.573         102.704    
    -2.24427         77.5164         127.690         102.704    
    -2.22137         76.7561         125.816         102.704    
    -2.19847         75.9958         123.951         102.704    
    -2.17557         75.2355         122.096         102.704    
    -2.15267         74.4752         120.250         102.704    
    -2.12977         73.7149         118.413         102.704    
    -2.10687         72.9546         116.586         102.704    
    -2.08397         72.1943         114.768         102.704    
    -2.06107         71.4340         112.960         102.704    
    -2.03817         70.6737         111.161         102.704    
    -2.01527         69.9134         109.372         102.704    
    -1.99237         69.1531         107.593         102.704    
    -1.96947         68.3928         105.823         102.704    
    -1.94656         67.6324         104.064         102.704    
    -1.92366         66.8721         102.314         102.704    
    -1.90076         66.1118         100.574         102.704    
    -1.87786         65.3515         98.8440         102.704    
    -1.85496         64.5912         97.1241         102.704    
    -1.83206         63.8309         95.4143         102.704    
    -1.80916         63.0706         93.7146         102.704    
    -1.78626         62.3103         92.0252         102.704    
    -1.76336         61.5500         90.3460         102.704    
    -1.74046         60.7897         88.6772         102.704    
    -1.71756         60.0294         87.0187         102.704    
    -1.69466         59.2691         85.3708         102.704    
    -1.67176         58.5088         83.7333         102.704    
    -1.64885         57.7485         82.1065         102.704    
    -1.62595         56.9882         80.4904         102.704    
    -1.60305         56.2279         78.8850         102.704    
    -1.58015         55.4676         77.2904         102.704    
    -1.55725         54.7073         75.7067         102.704    
    -1.53435         53.9470         74.1340         102.704    
    -1.51145         53.1866         72.5723         102.704    
    -1.48855         52.4263         71.0217         102.704    
    -1.46565         51.6660         69.4824         102.704    
    -1.44275         50.9057         67.9543         102.704    
    -1.41985         50.1454         66.4376         102.704    
    -1.39695         49.3851         64.9323         102.704    
    -1.37405         48.6248         63.4386         102.704    
    -1.35115         47.8645         61.9565         102.704    
    -1.32824         47.1042         60.4862         102.704    
    -1.30534         46.3439         59.0277         102.704    
    -1.28244         45.5836         57.5811         102.704    
    -1.25954         44.8233         56.1465         102.704    
    -1.23664         44.0630         54.7240         102.704    
    -1.21374         43.3027         53.3137         102.704    
    -1.19084         42.5424         51.9158         102.704    
    -1.16794         41.7821         50.5303         102.704    
    -1.14504         41.0218         49.1573         102.704    
    -1.12214         40.2615         47.7970         102.704    
    -1.09924         39.5012         46.4495         102.704    
    -1.07634         38.7408         45.1149         102.704    
    -1.05344         37.9805         43.7934         102.704    
    -1.03053         37.2202         42.4850         102.704    
    -1.00763         36.4599         41.1899         102.704    
   -0.984733         35.6996         39.9082         102.704    
   -0.961832         34.9393         38.6401         102.704    
   -0.938931         34.1790         37.3857         102.704    
   -0.916031         33.4187         36.1453         102.704    
   -0.893130         32.6584         34.9188         102.704    
   -0.870229         31.8981         33.7065         102.704    
   -0.847328         31.1378         32.5086         102.704    
   -0.824427         30.3775         31.3253         102.704    
   -0.801527         29.6172         30.1566         102.703    
   -0.778626         28.8568         29.0029         102.703    
   -0.755725         28.0962         27.8645         102.702    
   -0.732824         27.3349         26.7421         102.699    
   -0.709924         26.5721         25.6366         102.689    
   -0.687023         25.8070         24.5485         102.670    
   -0.664122         25.0398         23.4780         102.642    
   -0.641221         24.2712         22.4242         102.608    
   -0.618321         23.5018         21.3867         102.569    
   -0.595420         22.7324         20.3652         102.528    
   -0.572519         21.9628         19.3599         102.486    
   -0.549618         21.1933         18.3710         102.442    
   -0.526718         20.4237         17.3989         102.396    
   -0.503817         19.6542         16.4438         102.349    
   -0.480916         18.8847         15.5061         102.300    
   -0.458015         18.1151         14.5862         102.249    
   -0.435115         17.3456         13.6845         102.196    
   -0.412214         16.5760         12.8014         102.140    
   -0.389313         15.8065         11.9374         102.082    
   -0.366412         15.0370         11.0930         102.021    
   -0.343511         14.2674         10.2686         101.957    
   -0.320611         13.4980         9.46472         101.890    
   -0.297710         12.7298         8.68140         101.828    
   -0.274809         11.9692         7.91543         101.827    
   -0.251908         11.2400         7.15462         102.103    
   -0.229008         10.5899         6.37897         103.145    
   -0.206107         10.0558         5.58678         105.438    
   -0.183206         9.62663         4.81005         109.053    
   -0.160305         9.26319         4.08711         113.737    
   -0.137405         8.93117         3.43956         119.222    
   -0.114504         8.61063         2.87239         125.353    
   -0.916031E-01     8.29318         2.38164         132.097    
   -0.687023E-01     7.97631         1.96023         139.499    
   -0.458015E-01     7.65951         1.60068         147.642    
   -0.229008E-01     7.34271         1.29594         156.636    
    0.399680E-14     7.02592         1.03949         166.612    
