    -3.00000         3.00000    
    -2.97710         3.00000    
    -2.95420         2.99999    
    -2.93130         2.99985    
    -2.90840         2.99837    
    -2.88550         2.98830    
    -2.86260         2.94251    
    -2.83969         2.80384    
    -2.81679         2.52391    
    -2.79389         2.14715    
    -2.77099         1.80897    
    -2.74809         1.60654    
    -2.72519         1.52576    
    -2.70229         1.50429    
    -2.67939         1.50048    
    -2.65649         1.50004    
    -2.63359         1.50000    
    -2.61069         1.50000    
    -2.58779         1.50000    
    -2.56489         1.50000    
    -2.54198         1.50000    
    -2.51908         1.50000    
    -2.49618         1.50000    
    -2.47328         1.50000    
    -2.45038         1.50000    
    -2.42748         1.50000    
    -2.40458         1.50000    
    -2.38168         1.50000    
    -2.35878         1.50000    
    -2.33588         1.50000    
    -2.31298         1.50000    
    -2.29008         1.50000    
    -2.26718         1.50000    
    -2.24427         1.50000    
    -2.22137         1.50000    
    -2.19847         1.50000    
    -2.17557         1.50000    
    -2.15267         1.50000    
    -2.12977         1.50000    
    -2.10687         1.50000    
    -2.08397         1.50000    
    -2.06107         1.50000    
    -2.03817         1.50000    
    -2.01527         1.50000    
    -1.99237         1.50000    
    -1.96947         1.50000    
    -1.94656         1.50000    
    -1.92366         1.50000    
    -1.90076         1.50000    
    -1.87786         1.50000    
    -1.85496         1.50000    
    -1.83206         1.50000    
    -1.80916         1.50000    
    -1.78626         1.50000    
    -1.76336         1.50000    
    -1.74046         1.50000    
    -1.71756         1.50000    
    -1.69466         1.50000    
    -1.67176         1.50000    
    -1.64885         1.50000    
    -1.62595         1.50000    
    -1.60305         1.50000    
    -1.58015         1.50000    
    -1.55725         1.50000    
    -1.53435         1.50000    
    -1.51145         1.50000    
    -1.48855         1.50000    
    -1.46565         1.50000    
    -1.44275         1.50000    
    -1.41985         1.50000    
    -1.39695         1.50000    
    -1.37405         1.50000    
    -1.35115         1.50000    
    -1.32824         1.50000    
    -1.30534         1.50000    
    -1.28244         1.50000    
    -1.25954         1.50000    
    -1.23664         1.50000    
    -1.21374         1.50000    
    -1.19084         1.50000    
    -1.16794         1.50000    
    -1.14504         1.50000    
    -1.12214         1.50000    
    -1.09924         1.50000    
    -1.07634         1.50000    
    -1.05344         1.50000    
    -1.03053         1.50000    
    -1.00763         1.50000    
   -0.984733         1.50000    
   -0.961832         1.50000    
   -0.938931         1.50000    
   -0.916031         1.50000    
   -0.893130         1.50000    
   -0.870229         1.50000    
   -0.847328         1.50000    
   -0.824427         1.49999    
   -0.801527         1.49994    
   -0.778626         1.49961    
   -0.755725         1.49828    
   -0.732824         1.49470    
   -0.709924         1.48832    
   -0.687023         1.48070    
   -0.664122         1.47465    
   -0.641221         1.47145    
   -0.618321         1.47031    
   -0.595420         1.47005    
   -0.572519         1.47000    
   -0.549618         1.47000    
   -0.526718         1.47000    
   -0.503817         1.47000    
   -0.480916         1.47000    
   -0.458015         1.47000    
   -0.435115         1.47000    
   -0.412214         1.47000    
   -0.389313         1.47000    
   -0.366412         1.47000    
   -0.343511         1.47009    
   -0.320611         1.47114    
   -0.297710         1.48009    
   -0.274809         1.53063    
   -0.251908         1.72072    
   -0.229008         2.19710    
   -0.206107         2.99296    
   -0.183206         3.87961    
   -0.160305         4.53836    
   -0.137405         4.86471    
   -0.114504         4.97247    
   -0.916031E-01     4.99617    
   -0.687023E-01     4.99964    
   -0.458015E-01     4.99998    
   -0.229008E-01     5.00000    
    0.399680E-14     5.00000    
